%YAML 1.1
%TAG !u! tag:unity3d.com,2011:
--- !u!114 &11400000
MonoBehaviour:
  m_ObjectHideFlags: 0
  m_CorrespondingSourceObject: {fileID: 0}
  m_PrefabInstance: {fileID: 0}
  m_PrefabAsset: {fileID: 0}
  m_GameObject: {fileID: 0}
  m_Enabled: 1
  m_EditorHideFlags: 0
  m_Script: {fileID: 11500000, guid: b92b5b5f5665f6540ba8fcf6379ebab7, type: 3}
  m_Name: Knockback_Mana shield
  m_EditorClassIdentifier: 
  _name: Knockback
  _description: 
  _value: 0
  KnockbackForce: {x: 0, y: 0, z: -10}
